Chord functions • tabr
…
There are twelve columns. Again, some of the column-wise information
is also redundant, but it is not a big deal to include and removes the
need to do a variety of computations to map from one representation of
chord information to another. Here are the first ten rows:

guitarChords

#> # A tibble: 3,967 × 12
#>    id    lp_name root  octave root_fret min_fret bass_string notes      frets 
#>    <fct> <chr>   <chr>  <dbl>     <dbl>    <dbl>       <int> <chr>      <chr> 
#>  1 M     a,:5    a          2         0        0           5 a,eac#'e'  xo222o
#>  2 M     a,:5    a          2         0        0           5 a,ead_'e'  xo222o
#>  3 m     a,:m    a          2         0        0           5 a,eac'e'   xo221o
#>  4 7     a,:7    a          2         0        0           5 a,egc#'e'  xo2o2o
#>  5 7     a,:7    a          2         0        0           5 a,egd_'e'  xo2o2o
#>  6 M7    a,:maj7 a          2         0        0           5 a,eg#c#'e' xo212o
#>  7 M7    a,:maj7 a          2         0        0           5 a,ea_d_'e' xo212o
#>  8 m7    a,:m7   a          2         0        0           5 a,egc'e'   xo2o1o
#>  9 sus2  a,:sus2 a          2         0        0           5 a,eabe'    xo22oo
#> 10 sus4  a,:sus4 a          2         0        0           5 a,ead'e'   xo223o
#> # ℹ 3,957 more rows
#> # ℹ 3 more variables: semitones <list>, fretboard <chr>, open <lgl>
…
#> # A tibble: 6 × 12
#>   id    lp_name  root  octave root_fret min_fret bass_string notes        frets 
#>   <fct> <chr>    <chr>  <dbl>     <dbl>    <dbl>       <int> <chr>        <chr> 
#> 1 m7_5  b_,:m7_5 b_         2         1        0           5 b_,a_d_'e'   x1x12o
#> 2 m7_5  b_,:m7_5 b_         2         1        1           5 b_,ea_d_'    x1212x
#> 3 m7_5  b_,:m7_5 b_         2         6        5           6 b_,a_d_'e'   6x665x
#> 4 m7_5  b_:m7_5  b_         3         8        4           4 b_d_'e'a_'   xx8654
#> 5 m7_5  b_:m7_5  b_         3         8        8           4 b_e'a_'d_''  xx8999
#> 6 m7_5  b_:m7_5  b_         3        13       12           5 b_a_'d_''e'' x(13)…
#> # ℹ 3 more variables: semitones <list>, fretboard <chr>, open <lgl>

gc_info("a,m c d f,")

#> # A tibble: 23 × 12
#>    id    lp_name root  octave root_fret min_fret bass_string notes       frets  
#>    <fct> <chr>   <chr>  <dbl>     <dbl>    <dbl>       <int> <chr>       <chr>  
#>  1 m     a,:m    a          2         0        0           5 a,eac'e'    xo221o 
#>  2 m     a,:m    a          2         5        5           6 a,eac'e'a'  577555 
#>  3 m     a,:m    a          2         5        2           6 a,cea       5322xx 
#>  4 m     a:m     a          3         7        7           4 ae'a'c''    xx79(1…
#>  5 m     a:m     a          3        12       12           5 ae'a'c''e'' x(12)(…
#>  6 m     a:m     a          3        12        9           5 ac'e'a'     x(12)(…
#>  7 M     c:5     c          3         3        3           5 cgc'e'g'    x35553 
#>  8 M     c:5     c          3         3        0           5 cegc'e'     x32o1o 
#>  9 M     c:5     c          3         8        8           6 cgc'e'g'c'' 8(10)(…
#> 10 M     c:5     c          3         8        5           6 cegc'e'c''  875558 
#> # ℹ 13 more rows
#> # ℹ 3 more variables: semitones <list>, fretboard <chr>, open <lgl>
…
