Syntax converters • tabr
…
Say also that you knew that these chords were all strummed four times each, four quarter notes per measure. You can expand the series and add the time information as well.

x <- rep(x, each = 4)
time <- rep(4, length(x))

mdf <- as_music_df(x, time, key = "am")
mdf

#> # A tibble: 32 x 17
#>    duration pitch note  semitone octave  freq key   scale scale_deg pitch_int
#>    <chr>    <chr> <chr>    <int>  <int> <dbl> <chr> <chr>     <int>     <int>
#>  1 4        a,ea~ aeace       57      2  110. am    diat~         3        NA
#>  2 4        a,ea~ aeace       57      2  110. am    diat~         3         0
#>  3 4        a,ea~ aeace       57      2  110. am    diat~         3         0
#>  4 4        a,ea~ aeace       57      2  110. am    diat~         3         0
#>  5 4        cgc'~ cgceg       48      3  131. am    diat~         3         3
#>  6 4        cgc'~ cgceg       48      3  131. am    diat~         3         0
#>  7 4        cgc'~ cgceg       48      3  131. am    diat~         3         0
#>  8 4        cgc'~ cgceg       48      3  131. am    diat~         3         0
#>  9 4        dad'~ dadg_       50      3  147. am    diat~         4         2
#> 10 4        dad'~ dadg_       50      3  147. am    diat~         4         0
#> # ... with 22 more rows, and 7 more variables: scale_int <chr>, slur <chr>,
#> #   slide <lgl>, bend <lgl>, dotted <int>, articulation <chr>, annotation <chr>
…
For fun, define a new function to parse the fret data and calculate a new variable giving the physical fret span needed for your fretting hand, excluding the open fret of course.

library(dplyr)

fret_span <- function(x){
  f <- function(x) strsplit(x, ";") %>% unlist() %>% as.integer() %>% 
    range(na.rm = TRUE) %>% diff()
  suppressWarnings(sapply(x, f) + 1L) # coercing string to NA integer
}

mutate(mdf, frets = gc_notes_to_fb(pitch), fret_span = fret_span(frets)) %>%
  select(duration, pitch, frets, fret_span)

#> # A tibble: 32 x 4
#>    duration pitch    frets        fret_span
#>    <chr>    <chr>    <chr>            <int>
#>  1 4        a,eac'e' x;o;2;2;1;o;         2
#>  2 4        a,eac'e' x;o;2;2;1;o;         2
#>  3 4        a,eac'e' x;o;2;2;1;o;         2
#>  4 4        a,eac'e' x;o;2;2;1;o;         2
#>  5 4        cgc'e'g' x;3;5;5;5;3;         3
#>  6 4        cgc'e'g' x;3;5;5;5;3;         3
#>  7 4        cgc'e'g' x;3;5;5;5;3;         3
#>  8 4        cgc'e'g' x;3;5;5;5;3;         3
#>  9 4        dad'g_'  x;x;o;2;3;2;         2
#> 10 4        dad'g_'  x;x;o;2;3;2;         2
#> # ... with 22 more rows
…
