Chord mapping — chord-mapping • tabr
…
gc_info("a,m c d f,")
#> # A tibble: 23 × 12
#>    id    lp_name root  octave root_fret min_fret bass_string notes       frets  
#>    <fct> <chr>   <chr>  <dbl>     <dbl>    <dbl>       <int> <chr>       <chr>  
#>  1 m     a,:m    a          2         0        0           5 a,eac'e'    xo221o 
#>  2 m     a,:m    a          2         5        5           6 a,eac'e'a'  577555 
#>  3 m     a,:m    a          2         5        2           6 a,cea       5322xx 
#>  4 m     a:m     a          3         7        7           4 ae'a'c''    xx79(1…
#>  5 m     a:m     a          3        12       12           5 ae'a'c''e'' x(12)(…
#>  6 m     a:m     a          3        12        9           5 ac'e'a'     x(12)(…
#>  7 M     c:5     c          3         3        3           5 cgc'e'g'    x35553 
#>  8 M     c:5     c          3         3        0           5 cegc'e'     x32o1o 
#>  9 M     c:5     c          3         8        8           6 cgc'e'g'c'' 8(10)(…
#> 10 M     c:5     c          3         8        5           6 cegc'e'c''  875558 
#> # ℹ 13 more rows
#> # ℹ 3 more variables: semitones <list>, fretboard <chr>, open <lgl>
…
